lightbench.vcd
$date
  Mon Oct 16 14:51:11 2023
$end
$version
  GHDL v0
$end
$timescale
  1 fs
$end
$scope module standard $end
$upscope $end
$scope module std_logic_1164 $end
$upscope $end
$scope module numeric_std $end
$upscope $end
$scope module lightsbench $end
$var reg 1 ! clk $end
$var reg 1 " reset $end
$var reg 8 # lightsig[7:0] $end
$scope module l0 $end
$var reg 1 $ clk $end
$var reg 1 % reset $end
$var reg 8 & lightsig[7:0] $end
$var reg 3 ' irview[2:0] $end
$var reg 3 ( ir[2:0] $end
$var reg 4 ) pc[3:0] $end
$var reg 8 * lr[7:0] $end
$var reg 3 + romvalue[2:0] $end
$comment state is not handled $end
$var reg 3 , romin[2:0] $end
$scope module lightrom1 $end
$var reg 4 - addr[3:0] $end
$var reg 3 . data[2:0] $end
$upscope $end
$upscope $end
$upscope $end
$enddefinitions $end
#0
0!
0"
bUUUUUUUU #
0$
0%
bUUUUUUUU &
b000 '
b000 (
b0000 )
bUUUUUUUU *
b000 +
b000 ,
b0000 -
b000 .
#5000000
1!
1"
b00000000 #
1$
1%
b00000000 &
b0001 )
b00000000 *
b101 +
b101 ,
b0001 -
b101 .
#10000000
0!
0$
b101 '
b101 (
b0010 )
b0010 -
#15000000
1!
b11111111 #
1$
b11111111 &
b11111111 *
#20000000
0!
0$
b0011 )
b0011 -
#25000000
1!
b00000000 #
1$
b00000000 &
b00000000 *
#30000000
0!
0$
b0100 )
b001 +
b001 ,
b0100 -
b001 .
#35000000
1!
b11111111 #
1$
b11111111 &
b11111111 *
#40000000
0!
0$
b001 '
b001 (
b0101 )
b0101 -
#45000000
1!
b01111111 #
1$
b01111111 &
b01111111 *
#50000000
0!
0$
b0110 )
b111 +
b111 ,
b0110 -
b111 .
#55000000
1!
b00111111 #
1$
b00111111 &
b00111111 *
#60000000
0!
0$
b111 '
b111 (
b0111 )
b0111 -
#65000000
1!
b01111110 #
1$
b01111110 &
b01111110 *
#70000000
0!
0$
b1000 )
b1000 -
#75000000
1!
b11111100 #
1$
b11111100 &
b11111100 *
#80000000
0!
0$
b1001 )
b1001 -
#85000000
1!
b11111001 #
1$
b11111001 &
b11111001 *
#90000000
0!
0$
b1010 )
b010 +
b010 ,
b1010 -
b010 .
#95000000
1!
b11110011 #
1$
b11110011 &
b11110011 *
#100000000
0!
0$
b010 '
b010 (
b1011 )
b1011 -
#105000000
1!
b11100110 #
1$
b11100110 &
b11100110 *
#110000000
0!
0$
b1100 )
b011 +
b011 ,
b1100 -
b011 .
#115000000
1!
b11001100 #
1$
b11001100 &
b11001100 *
#120000000
0!
0$
b011 '
b011 (
b1101 )
b100 +
b100 ,
b1101 -
b100 .
#125000000
1!
b11001101 #
1$
b11001101 &
b11001101 *
#130000000
0!
0$
b100 '
b100 (
b1110 )
b101 +
b101 ,
b1110 -
b101 .
#135000000
1!
b11001100 #
1$
b11001100 &
b11001100 *
#140000000
0!
0$
b101 '
b101 (
b1111 )
b011 +
b011 ,
b1111 -
b011 .
#145000000
1!
b00110011 #
1$
b00110011 &
b00110011 *
#150000000
0!
0$
b011 '
b011 (
b0000 )
b000 +
b000 ,
b0000 -
b000 .
#155000000
1!
b00110100 #
1$
b00110100 &
b00110100 *
#160000000
0!
0$
b000 '
b000 (
b0001 )
b101 +
b101 ,
b0001 -
b101 .
#165000000
1!
b00000000 #
1$
b00000000 &
b00000000 *
#170000000
0!
0$
b101 '
b101 (
b0010 )
b0010 -
#175000000
1!
b11111111 #
1$
b11111111 &
b11111111 *
#180000000
0!
0$
b0011 )
b0011 -
#185000000
1!
b00000000 #
1$
b00000000 &
b00000000 *
#190000000
0!
0$
b0100 )
b001 +
b001 ,
b0100 -
b001 .
#195000000
1!
b11111111 #
1$
b11111111 &
b11111111 *
#200000000
0!
0$
b001 '
b001 (
b0101 )
b0101 -
#205000000
1!
b01111111 #
1$
b01111111 &
b01111111 *
#210000000
0!
0$
b0110 )
b111 +
b111 ,
b0110 -
b111 .
#215000000
1!
b00111111 #
1$
b00111111 &
b00111111 *
#220000000
0!
0$
b111 '
b111 (
b0111 )
b0111 -
#225000000
1!
b01111110 #
1$
b01111110 &
b01111110 *
#230000000
0!
0$
b1000 )
b1000 -
#235000000
1!
b11111100 #
1$
b11111100 &
b11111100 *
#240000000
0!
0$
b1001 )
b1001 -
#245000000
1!
b11111001 #
1$
b11111001 &
b11111001 *
#250000000
0!
0$
b1010 )
b010 +
b010 ,
b1010 -
b010 .
#255000000
1!
b11110011 #
1$
b11110011 &
b11110011 *
#260000000
0!
0$
b010 '
b010 (
b1011 )
b1011 -
#265000000
1!
b11100110 #
1$
b11100110 &
b11100110 *
#270000000
0!
0$
b1100 )
b011 +
b011 ,
b1100 -
b011 .
#275000000
1!
b11001100 #
1$
b11001100 &
b11001100 *
#280000000
0!
0$
b011 '
b011 (
b1101 )
b100 +
b100 ,
b1101 -
b100 .
#285000000
1!
b11001101 #
1$
b11001101 &
b11001101 *
#290000000
0!
0$
b100 '
b100 (
b1110 )
b101 +
b101 ,
b1110 -
b101 .
#295000000
1!
b11001100 #
1$
b11001100 &
b11001100 *
#300000000
0!
0$
b101 '
b101 (
b1111 )
b011 +
b011 ,
b1111 -
b011 .
#305000000
1!
b00110011 #
1$
b00110011 &
b00110011 *
#310000000
0!
0$
b011 '
b011 (
b0000 )
b000 +
b000 ,
b0000 -
b000 .
#315000000
1!
b00110100 #
1$
b00110100 &
b00110100 *
#320000000
0!
0$
b000 '
b000 (
b0001 )
b101 +
b101 ,
b0001 -
b101 .
#325000000
1!
b00000000 #
1$
b00000000 &
b00000000 *
#330000000
0!
0$
b101 '
b101 (
b0010 )
b0010 -
#335000000
1!
b11111111 #
1$
b11111111 &
b11111111 *
#340000000
0!
0$
b0011 )
b0011 -
#345000000
1!
b00000000 #
1$
b00000000 &
b00000000 *
#350000000
0!
0$
b0100 )
b001 +
b001 ,
b0100 -
b001 .
#355000000
1!
b11111111 #
1$
b11111111 &
b11111111 *
#360000000
0!
0$
b001 '
b001 (
b0101 )
b0101 -
#365000000
1!
b01111111 #
1$
b01111111 &
b01111111 *
#370000000
0!
0$
b0110 )
b111 +
b111 ,
b0110 -
b111 .
#375000000
1!
b00111111 #
1$
b00111111 &
b00111111 *
#380000000
0!
0$
b111 '
b111 (
b0111 )
b0111 -
#385000000
1!
b01111110 #
1$
b01111110 &
b01111110 *
#390000000
0!
0$
b1000 )
b1000 -
#395000000
1!
b11111100 #
1$
b11111100 &
b11111100 *
